﻿3,4,1,2,8,3,4,1,2,8,3,4,1,2,8,3,4,1,2,8,3,4,1,2,8,3,4,1,2,8,3,4,1,2,8,3,4,1,2,8,3,4,1,2,8,3,4,1,2,8,3,4,1,2,8,3,4,1,2,8,3,4,1,2,8,3,4,1,2,8,3,4,1,2,11,3,4,1,2,8,3,4,1,2,8,3,4,1,2,8,3,4,1,2,18,3,4,1,2,8
6,1,8,2,7,6,1,8,2,7,6,1,8,2,7,6,1,8,2,7,6,1,8,2,7,6,1,8,2,7,6,1,8,2,7,6,1,8,2,7,6,1,8,2,7,6,1,8,2,7,6,1,8,2,7,6,1,8,2,7,6,1,8,2,7,6,1,8,2,7,6,1,8,2,7,6,1,8,2,7,6,1,8,2,7,6,1,8,2,7,6,1,8,2,7,6,1,8,2,7
5,9,3,9,9,8,4,1,3,2,8,4,1,3,2,8,4,1,3,2,8,4,1,3,2,8,4,1,3,2,8,4,1,3,2,8,4,1,3,2,8,4,1,3,2,8,4,1,3,2,8,4,1,3,2,8,4,1,3,2,8,-14,1,3,2,8,4,1,3,2,8,4,1,3,2,8,4,1,3,2,8,4,1,3,2,8,4,1,3,2,8,4,1,3,2,8,4,1,3,2
8,4,1,3,2,3,7,2,1,2,3,0,2,1,2,3,7,2,1,2,3,7,2,1,2,3,7,2,1,2,3,7,2,1,2,3,7,2,1,2,3,7,2,1,2,3,7,2,1,2,3,7,2,1,2,3,7,2,1,2,3,7,2,1,2,3,7,2,1,2,3,7,2,1,2,3,7,2,1,2,3,7,2,1,2,3,7,2,1,2,3,7,2,1,2,3,7,2,1,2
3,7,2,1,2,8,4,1,3,2,8,4,1,3,2,8,4,1,3,2,8,4,1,3,2,8,4,1,3,2,8,4,1,3,2,-33,4,1,3,2,8,4,1,3,2,8,4,1,3,2,8,4,1,3,2,0,4,1,3,2,8,4,1,3,2,8,4,1,3,2,8,4,1,3,2,8,4,1,3,2,8,4,1,3,22,8,4,1,3,2,8,4,1,3,2,8,4,1,3,2
3,4,1,2,8,3,7,2,1,2,8,4,1,3,2,3,7,2,1,2,8,4,1,3,2,3,7,2,1,2,8,4,1,3,2,3,7,2,1,2,8,4,1,3,2,3,7,2,1,2,8,4,1,3,2,3,7,2,1,2,8,4,1,3,2,3,7,2,1,2,8,4,1,3,2,3,7,2,1,2,-1,4,1,3,2,3,7,2,1,2,8,4,1,3,2,6,1,8,2,7
6,1,8,2,7,6,1,8,2,7,6,1,8,2,7,6,1,-10,2,7,6,1,8,2,7,6,1,8,2,7,6,1,8,2,7,6,1,8,2,7,6,1,8,2,7,6,1,8,2,7,6,1,8,2,7,6,1,8,2,7,6,1,8,2,7,6,1,8,2,7,6,1,8,2,7,6,1,0,2,7,6,1,8,2,7,6,1,8,2,7,6,1,8,2,7,6,1,8,2,7
5,9,3,9,9,8,4,1,3,2,8,4,1,3,2,8,4,1,3,2,8,4,1,3,2,8,4,1,3,2,8,4,1,3,2,8,4,1,3,2,5,49,3,9,9,5,9,3,9,9,3,7,2,1,2,3,7,2,1,2,3,7,2,1,2,3,7,2,1,2,3,7,2,1,2,3,7,2,1,2,3,7,2,1,2,3,7,2,1,2,3,7,2,1,2,1,7,2,1,2
8,4,1,3,2,3,7,2,1,2,3,7,2,1,2,3,7,2,1,2,5,9,3,9,9,5,9,3,9,9,5,9,3,9,9,5,9,3,9,9,3,4,1,2,8,3,4,1,2,8,-3,4,1,2,8,3,4,1,2,8,3,4,1,2,8,3,4,1,2,8,2,3,7,2,1,2,2,3,7,2,1,2,2,3,7,2,1,2,2,3,7,2,1,2,2,3,7,2,1,2
3,7,2,1,2,3,4,1,2,8,3,4,1,2,8,3,4,1,2,8,3,4,1,2,8,3,4,1,2,8,3,4,1,2,8,3,4,1,2,8,8,4,1,3,2,3,8,4,1,3,2,3,8,4,1,3,2,3,8,4,1,3,2,3,8,4,1,3,2,3,-9,4,1,3,2,3,8,4,1,3,2,3,8,4,1,3,2,3,8,4,1,3,2,3,28,4,1,3,2,3